docker run --name=aas -p 8081:4001 -d eclipsebasyx/aas-server:1.2.0
docker run --name=registry -p 8082:4000 -d eclipsebasyx/aas-registry:1.2.0
  647  [2024-05-17 06:26:38] docker run --name=aas -p 8081:4001 eclipsebasyx/aas-server:1.2.0
  648  [2024-05-17 06:26:49] docker rm aas
  649  [2024-05-17 06:26:53] docker run --name=aas -p 8081:4001 eclipsebasyx/aas-server:1.2.0 -d
  650  [2024-05-17 06:27:13] docker run --name=aas -p 8081:4001 -d eclipsebasyx/aas-server:1.2.0
  651  [2024-05-17 06:27:20] docker rm aas
  652  [2024-05-17 06:27:22] docker run --name=aas -p 8081:4001 -d eclipsebasyx/aas-server:1.2.0
  653  [2024-05-17 06:27:25] docker ps
  654  [2024-05-17 06:30:46] docker run --name=registry -p 8082:4000 -d eclipsebasyx/aas-registry:1.2.0
  655  [2024-05-17 06:30:51] docker ps
  656  [2024-05-17 06:57:44] docker exec -it aas /bin/bash
  657  [2024-05-17 07:05:26] ls
  658  [2024-05-17 07:05:41] docker kill aas
  659  [2024-05-17 07:06:58] docker run --name=aas 8081:4001 -v ./:/usr/share/config eclipsebasyx/aas-server:1.2.0
  660  [2024-05-17 07:07:24] docker run --name=aas -p 8081:4001 -v ./:/usr/share/config -d  eclipsebasyx/aas-server:1.2.0
  661  [2024-05-17 07:07:32] docker kill aas
  662  [2024-05-17 07:07:38] docker rm aas
  663  [2024-05-17 07:07:41] docker run --name=aas -p 8081:4001 -v ./:/usr/share/config -d  eclipsebasyx/aas-server:1.2.0
  664  [2024-05-17 07:09:39] docker run --name=aas -p 8081:4001 -v {pwd}:/usr/share/config -d  eclipsebasyx/aas-server:1.2.0
  665  [2024-05-17 07:11:39] docker run --name=aas -p 8081:4001 -v $(pwd):/usr/share/config -d eclipsebasyx/aas-server:1.2.0
  666  [2024-05-17 07:15:52] docker ps
  667  [2024-05-17 07:16:32] docker exec -it aas /bin/bash
  668  [2024-05-17 07:18:05] pwd
  669  [2024-05-17 07:18:30] docker run --name=aas -p 8081:4001 -v /home/mobaxterm/Desktop/aasx:/usr/share/config -d eclipsebasyx/aas-server:1.2.0
  670  [2024-05-17 07:18:36] docker rm aas
  671  [2024-05-17 07:18:45] docker kill aas
  672  [2024-05-17 07:18:51] docker rm aas
  673  [2024-05-17 07:18:57] docker run --name=aas -p 8081:4001 -v /home/mobaxterm/Desktop/aasx:/usr/share/config -d eclipsebasyx/aas-server:1.2.0
  674  [2024-05-17 07:19:08] docker exec -it aas /bin/bash
  675  [2024-05-17 07:22:44] docker cp /home/mobaxterm/Desktop/aasx/. aas:/usr/share/config
  676  [2024-05-17 07:23:13] docker cp /. aas:/usr/share/config
  677  [2024-05-17 07:24:34] docker cp C:/Users/USER/OneDrive/Desktop/aasx/. aas:/usr/share/config
  678  [2024-05-17 07:24:44] docker exec -it aas /bin/bash
  679  [2024-05-17 07:25:36] docker logs aas
  680  [2024-05-17 07:26:18] docker restart aas
  681  [2024-05-17 07:27:13] docker logs aas
  682  [2024-05-17 07:27:32] docker exec -it aas /bin/bash
  683  [2024-05-17 07:35:24] docker restart aas
  684  [2024-05-17 07:38:25] docker cp C:/Users/USER/OneDrive/Desktop/aasx/. aas:/usr/share/config
  685  [2024-05-17 07:38:34] docker restart aas
  686  [2024-05-17 07:38:53] docker logs aas
  687  [2024-05-17 08:04:29] history
